3 Estadísticos descriptivos del Abandono Escolar | Modelo Predictivo de la Deserción en la Educación Media Superior
…
Sexo

Tiempo de la escuela a la casa

Tener hijos

Consumo de Drogas

tabla_univariada <- function(datos, variable, target){
  datos %>% count({{ variable }}, {{ target }}) %>% group_by({{ variable }}) %>% 
  mutate(prop = n / sum(n)) %>% mutate(prop = round(prop, 2)) }

tabla_univariada(encuesta, p5, desertor)

## # A tibble: 82 × 4
## # Groups:   p5 [41]
##       p5 desertor        n  prop
##    <dbl> <fct>       <int> <dbl>
##  1   6   desertor       39  0.53
##  2   6   no_desertor    34  0.47
##  3   6.1 desertor        4  0.8 
##  4   6.1 no_desertor     1  0.2 
##  5   6.2 desertor        5  0.45
##  6   6.2 no_desertor     6  0.55
##  7   6.3 desertor        1  0.5 
##  8   6.3 no_desertor     1  0.5 
##  9   6.4 desertor        4  0.8 
## 10   6.4 no_desertor     1  0.2 
## # … with 72 more rows
